[
/* {"post_content":"Isabel\n\n135lb Snatch\n\n30 Reps"},
{"post_content":"Jackie\n\n1000m Row\n\n50 Thruster 45lbs\n\n30 Pull Ups"},
{"post_content":"Nasty Girls\n\n3 rounds for time of:\n\n50 Squats\n\n7 Muscle-ups\n\n135 lb Hang power cleans, 10 reps"},
{"post_content":"Nancy\n\n5 Rounds For Time\n\n400m Run\n\n15 Overhead Squat 95lbs"},
{"post_content":"Chelsea\n\n5 Pull Ups\n\n10 Push Ups\n\n15 Squats\n\nOn The Minute Every Minute For 30 Minutes."},
{"post_content":"Helen\n\n3 Rounds For Time\n\nRun 400m\n\n21 Kettle Bell Swings 55lb\n\n12 Pull Ups"},
{"post_content":"Linda\n\n10 – 9 – 8 – 7 – 6 – 5 – 4 – 3 – 2 – 1 of\n\n1.5x Body Weight Deadlift\n\nBody Weight Bench Press\n\n3/4x Body Weight Cleans"}
, */
{"post_content":"Annie\n\n50 – 40 – 30 – 20 – 10 For Time\n\n Double Unders\n\nSit Ups"}
,
{"post_content":"Cindy\n\n5 Pull Ups\n\n10 Push Ups\n\n15 Squats\n\nAs Many Rounds As Possible (AMRAP) in 20 Minutes"},
{"post_content":"Barbara\n\n20 Pull Ups\n\n30 Push Ups\n\n40 Sit Ups\n\n50 Squats\n\nRest 3 Mins\n\nRepeat All For 5 Rounds"},
{"post_content":"Fran\n\n21 – 15 – 9 Reps\n\nThruster 95lbs\n\nPull Ups"}
,
{"post_content":"Mary\n\n5 Handstand Push Ups\n\n10 One Legged Squats (Pistols)\n\n15 Pull Ups\n\nAs Many Rounds As Possible (AMRAP) in 20 Minutes"},
{"post_content":"Elizabeth\n\n21 – 15 – 9 Reps\n\n135lb Clean\n\nRing Dips"}
,
{"post_content":"Diane\n\n21 – 15 – 9 Reps\n\n225lb Deadlift\n\nHandstand Push Ups"}
,
{"post_content":"Grace\n\n135lb Clean & Jerk\n\n30 Reps"},
{"post_content":"Lynne\n\nBodyweight Bench Press Max Reps\n\nPull Ups Max Reps\n\n5 Rounds For Max Reps"},
{"post_content":"Frelen\n\n5 Rounds For Time\n\nRun 800m\n\n15 Dumbbell Thruster\n\n15 Pull Ups"},
{"post_content":"Karen\n\nFor Time\n\n150 Wall Balls 20lbs"},
{"post_content":"Kelly\n\n5 Rounds For Time\n\nRun 400m\n\n30 Box Jumps\n\n30 Wall Balls 20lbs"},
{"post_content":"Angie\n\n100 Pull Ups\n\n100 Push Ups\n\n100 Sit Ups\n\n100 Squats"},
{"post_content":"Nicole\n\n400m Run\n\nMax Rep Pull Ups\n\nAs Many Rounds As Possible (AMRAP) in 20 Minutes – Note the pull ups completed in each round."}

]
